{
  "routes": [
    {
      "source": "^/-/cds/.*",
      "destination": "mtx-api",
      "authenticationType": "none"
    },
    {
      "source": "^/app/(.*)$",
      "target": "$1",
      "localDir": ".",
      "cacheControl": "no-cache, no-store, must-revalidate"
    },
    {
      "source": "^/(.*)$",
      "target": "$1",
      "destination": "srv-api",
      "csrfProtection": true
    }
  ]
}
